{
  "welcomeFile": "index.html",
  "logout": { "logoutEndpoint": "/do/logout" },    
  "routes": 
  [
    {
        "source": "^/hw/",
        "target": "/",
        "destination": "hw-dest"
    },
    {
      "source": "^/(.*)",
      "target": "$1",
      "localDir": "ui"
    }        
  ]
}
